{
  "todos": [
    {
      "text": "1",
      "id": 1
    },
    {
      "text": "2",
      "id": 2
    },
    {
      "text": "3",
      "id": 3
    },
    {
      "text": "4",
      "id": 4
    },
    {
      "text": "dg",
      "id": 5
    }
  ]
}